{
  "dbConfig": {
    "url": "mysql://bf9a92f552b8bb:a583801c@eu-cdbr-west-02.cleardb.net/heroku_03d2943dabf4e96?reconnect=true",
    "host": "eu-cdbr-west-02.cleardb.net/?reconnect=true",
    "port": 3306,
    "database": "heroku_03d2943dabf4e96",
    "username": "bf9a92f552b8bb",
    "password": "a583801c",
    "dialect": "mysql"
  }
}
